…
#### Tidy the Data

Transform dataframe so every row is an observation (a reaction time) and every column is a variable.

``` r
# Tidy the dataset, in the Hadley Wickham sense of 'tidy', not the KonMari sense
(tidy_balanced <- balanced %>%
  select(subject_id, cp, time, factor, gender, everything()) %>%
  gather(key = 'trial', value = 'response', 6:75))
```

    ## # A tibble: 3,360 x 7
    ##    subject_id    cp time        factor gender trial    response
    ##         <int> <dbl> <S3: times>  <int> <fct>  <chr>       <dbl>
    ##  1          1     2 10:31:06         3 Male   stage1_0     1.94
    ##  2          2     2 10:34:22         3 Female stage1_0     4.45
    ##  3          3     2 10:45:03         2 Female stage1_0     1.88
    ##  4          4     2 10:48:56         4 Female stage1_0    28.4 
    ##  5          5     1 10:52:27         1 Male   stage1_0     1.42
    ##  6          6     3 11:42:21         4 Male   stage1_0     1.83
    ##  7          7     3 12:09:09         4 Female stage1_0     4.41
    ##  8          8     3 12:15:50         3 Male   stage1_0     1.67
    ##  9          9     1 12:17:19         4 Male   stage1_0     6.29
    ## 10         10     3 12:18:55         1 Female stage1_0     1.51
    ## # ... with 3,350 more rows
…
# Determine each subject's mean response time for
# stage 3 (male_leader) and 5 (female_leader)
(mean_response <- df %>% 
  mutate(is_stage_3 = grepl("stage3",trial)) %>%
  group_by(subject_id, cp, time, factor, gender, is_stage_3) %>%
  summarise(mean = mean(response)) %>%
  spread(key = is_stage_3, value = mean) %>%
  rename(stage3_mean = 'TRUE', stage5_mean = 'FALSE'))
```

    ## # A tibble: 48 x 7
    ## # Groups:   subject_id, cp, time, factor, gender [48]
    ##    subject_id    cp time        factor gender stage5_mean stage3_mean
    ##         <int> <dbl> <S3: times>  <int> <fct>        <dbl>       <dbl>
    ##  1          1     2 10:31:06         3 Male         1.35        1.23 
    ##  2          2     2 10:34:22         3 Female       0.903       1.02 
    ##  3          3     2 10:45:03         2 Female       2.11        1.65 
    ##  4          4     2 10:48:56         4 Female       2.33        1.25 
    ##  5          5     1 10:52:27         1 Male         1.22        1.06 
    ##  6          6     3 11:42:21         4 Male         1.03        1.00 
    ##  7          7     3 12:09:09         4 Female       0.760       1.04 
    ##  8          8     3 12:15:50         3 Male         1.27        0.876
    ##  9          9     1 12:17:19         4 Male         2.12        1.05 
    ## 10         10     3 12:18:55         1 Female       1.50        1.42 
    ## # ... with 38 more rows
We use the mean\_response dataframe to compute IAT scores

``` r
(iat_df <- df %>% 
  group_by(subject_id) %>%
  summarise(sd = sd(response)) %>%
  right_join(mean_response) %>%
  mutate(diff = (stage5_mean - stage3_mean)) %>%
  mutate(iat_d = diff/sd) %>%
  select(-sd, sd))
```

    ## Joining, by = "subject_id"

    ## # A tibble: 48 x 10
    ##    subject_id    cp time  factor gender stage5_mean stage3_mean    diff
    ##         <int> <dbl> <S3:>  <int> <fct>        <dbl>       <dbl>   <dbl>
    ##  1          1     2 10:3~      3 Male         1.35        1.23   0.117 
    ##  2          2     2 10:3~      3 Female       0.903       1.02  -0.122 
    ##  3          3     2 10:4~      2 Female       2.11        1.65   0.459 
    ##  4          4     2 10:4~      4 Female       2.33        1.25   1.08  
    ##  5          5     1 10:5~      1 Male         1.22        1.06   0.155 
    ##  6          6     3 11:4~      4 Male         1.03        1.00   0.0292
    ##  7          7     3 12:0~      4 Female       0.760       1.04  -0.280 
    ##  8          8     3 12:1~      3 Male         1.27        0.876  0.394 
    ##  9          9     1 12:1~      4 Male         2.12        1.05   1.07  
    ## 10         10     3 12:1~      1 Female       1.50        1.42   0.0742
    ## # ... with 38 more rows, and 2 more variables: iat_d <dbl>, sd <dbl>
…
